task4/top.vcd
$version Generated by VerilatedVcd $end
$date Thu Nov  3 16:51:08 2022 $end
$timescale 1ps $end

 $scope module TOP $end
  $var wire  7 / N [6:0] $end
  $var wire  1 - clk $end
  $var wire  8 1 data_out [7:0] $end
  $var wire  1 . rst $end
  $var wire  1 2 test $end
  $var wire  1 0 trigger $end
  $scope module top $end
   $var wire  7 / N [6:0] $end
   $var wire 32 8 WIDTH [31:0] $end
   $var wire  1 - clk $end
   $var wire  1 ) cmd_delay $end
   $var wire  1 ( cmd_seq $end
   $var wire  8 1 data_out [7:0] $end
   $var wire  4 * k [4:1] $end
   $var wire  1 3 mux_out $end
   $var wire  1 + random $end
   $var wire  1 . rst $end
   $var wire  1 2 test $end
   $var wire  1 # tick $end
   $var wire  1 $ time_out $end
   $var wire  1 0 trigger $end
   $scope module fsm $end
    $var wire  1 - clk $end
    $var wire  1 ) cmd_delay $end
    $var wire  1 ( cmd_seq $end
    $var wire 32 4 current_state [31:0] $end
    $var wire  8 1 data_out [7:0] $end
    $var wire  1 3 en $end
    $var wire 32 5 next_state [31:0] $end
    $var wire  1 . rst $end
    $var wire  1 0 trigger $end
   $upscope $end
   $scope module lfsr1 $end
    $var wire  1 - clk $end
    $var wire  7 , data_out [7:1] $end
    $var wire  1 9 en $end
    $var wire  7 , random [7:1] $end
    $var wire  1 . rst $end
    $var wire  7 , sreg [7:1] $end
   $upscope $end
   $scope module mux $end
    $var wire  1 ( cmd_seq $end
    $var wire  1 3 mux_out $end
    $var wire  1 # tick $end
    $var wire  1 $ time_out $end
   $upscope $end
   $scope module one_delay $end
    $var wire 32 : WIDTH [31:0] $end
    $var wire  1 - clk $end
    $var wire  4 % count [3:0] $end
    $var wire 32 & current_state [31:0] $end
    $var wire  4 * n [3:0] $end
    $var wire 32 6 next_state [31:0] $end
    $var wire  1 . rst $end
    $var wire  1 $ time_out $end
    $var wire  1 ) trigger $end
   $upscope $end
   $scope module second $end
    $var wire 16 7 N [15:0] $end
    $var wire 32 ; WIDTH [31:0] $end
    $var wire  1 - clk $end
    $var wire 16 ' count [15:0] $end
    $var wire  1 ( en $end
    $var wire  1 . rst $end
    $var wire  1 # tick $end
   $upscope $end
  $upscope $end
 $upscope $end
$enddefinitions $end


#0
0#
0$
b0000 %
b00000000000000000000000000000000 &
b0000000000000000 '
0(
0)
b0000 *
0+
b0000000 ,
1-
0.
b0000011 /
00
b00000000 1
02
03
b00000000000000000000000000000000 4
b00000000000000000000000000000001 5
b00000000000000000000000000000000 6
b0000000000000011 7
b00000000000000000000000000000111 8
19
b00000000000000000000000000000100 :
b00000000000000000000000000010000 ;
#1
0-
#2
b1111 %
1-
1.
#3
b0001 *
1+
b0000001 ,
0-
#4
b0000 %
b0000000000000011 '
1-
#5
0-
#6
1-
0.
#7
0-
#8
b0011 *
b0000011 ,
1-
#9
0-
#10
b0010 %
b0111 *
b0000111 ,
1-
#11
0-
#12
b0001 %
b1111 *
b0001111 ,
1-
#13
0-
#14
b0000 %
b0011111 ,
1-
#15
0-
#16
b1110 %
b1110 *
0+
b0111110 ,
1-
#17
0-
#18
b1101 %
b1101 *
1+
b1111101 ,
1-
#19
0-
#20
b1100 %
b1010 *
0+
b1111010 ,
1-
#21
0-
#22
b1011 %
b0101 *
1+
b1110101 ,
1-
#23
0-
#24
b1010 %
b1010 *
0+
b1101010 ,
1-
#25
0-
#26
b1001 %
b0100 *
b1010100 ,
1-
#27
0-
#28
b1000 %
b1001 *
1+
b0101001 ,
1-
#29
0-
#30
b0111 %
b0011 *
b1010011 ,
1-
#31
0-
#32
b0110 %
b0110 *
0+
b0100110 ,
1-
#33
0-
#34
b0101 %
b1100 *
b1001100 ,
1-
#35
0-
#36
b0100 %
b1000 *
b0011000 ,
1-
#37
0-
#38
b0011 %
b0001 *
1+
b0110001 ,
1-
#39
0-
#40
b0010 %
b0010 *
0+
b1100010 ,
1-
#41
0-
#42
b0001 %
b0100 *
b1000100 ,
1-
#43
0-
#44
b0000 %
b1000 *
b0001000 ,
1-
#45
0-
#46
b0111 %
b0000 *
b0010000 ,
1-
#47
0-
#48
b0110 %
b0001 *
1+
b0100001 ,
1-
#49
0-
#50
b0101 %
b0011 *
b1000011 ,
1-
#51
0-
#52
b0100 %
b0111 *
b0000111 ,
1-
#53
0-
#54
b0011 %
b1111 *
b0001111 ,
1-
#55
0-
#56
b0010 %
b0011111 ,
1-
#57
0-
#58
b0001 %
b1110 *
0+
b0111110 ,
1-
#59
0-
#60
b0000 %
b1101 *
1+
b1111101 ,
1-
#61
0-
#62
b1100 %
b1010 *
0+
b1111010 ,
1-
#63
0-
#64
b1011 %
b0101 *
1+
b1110101 ,
1-
#65
0-
#66
b1010 %
b1010 *
0+
b1101010 ,
1-
#67
0-
#68
b1001 %
b0100 *
b1010100 ,
1-
#69
0-
#70
b1000 %
b1001 *
1+
b0101001 ,
1-
#71
0-
#72
b0111 %
b0011 *
b1010011 ,
1-
#73
0-
#74
b0110 %
b0110 *
0+
b0100110 ,
1-
#75
0-
#76
b0101 %
b1100 *
b1001100 ,
1-
#77
0-
#78
b0100 %
b1000 *
b0011000 ,
1-
#79
0-
#80
b0011 %
b0001 *
1+
b0110001 ,
1-
#81
0-
#82
b0010 %
b0010 *
0+
b1100010 ,
1-
#83
0-
#84
b0001 %
b0100 *
b1000100 ,
1-
#85
0-
#86
b0000 %
b1000 *
b0001000 ,
1-
#87
0-
#88
b0111 %
b0000 *
b0010000 ,
1-
#89
0-
#90
b0110 %
b0001 *
1+
b0100001 ,
1-
#91
0-
#92
b0101 %
b0011 *
b1000011 ,
1-
#93
0-
#94
b0100 %
b0111 *
b0000111 ,
1-
#95
0-
#96
b0011 %
b1111 *
b0001111 ,
1-
#97
0-
#98
b0010 %
b0011111 ,
1-
#99
0-
#100
b0001 %
b1110 *
0+
b0111110 ,
1-
#101
0-
#102
b0000 %
b1101 *
1+
b1111101 ,
1-
#103
0-
#104
b1100 %
b1010 *
0+
b1111010 ,
1-
#105
0-
#106
b1011 %
b0101 *
1+
b1110101 ,
1-
#107
0-
#108
b1010 %
b1010 *
0+
b1101010 ,
1-
#109
0-
#110
b1001 %
b0100 *
b1010100 ,
1-
#111
0-
#112
b1000 %
b1001 *
1+
b0101001 ,
1-
#113
0-
#114
b0111 %
b0011 *
b1010011 ,
1-
#115
0-
#116
b0110 %
b0110 *
0+
b0100110 ,
1-
#117
0-
#118
b0101 %
b1100 *
b1001100 ,
1-
#119
0-
#120
b0100 %
b1000 *
b0011000 ,
1-
#121
0-
#122
b0011 %
b0001 *
1+
b0110001 ,
1-
#123
0-
#124
b0010 %
b0010 *
0+
b1100010 ,
1-
#125
0-
#126
b0001 %
b0100 *
b1000100 ,
1-
#127
0-
#128
b0000 %
b1000 *
b0001000 ,
1-
#129
0-
#130
b0111 %
b0000 *
b0010000 ,
1-
10
#131
0-
#132
b0110 %
1(
b0001 *
1+
b0100001 ,
1-
00
b00000001 1
b00000000000000000000000000000001 4
b00000000000000000000000000000010 5
#133
0-
#134
b0101 %
b0000000000000010 '
b0011 *
b1000011 ,
1-
#135
0-
#136
b0100 %
b0000000000000001 '
b0111 *
b0000111 ,
1-
#137
0-
#138
b0011 %
b0000000000000000 '
b1111 *
b0001111 ,
1-
#139
0-
#140
1#
b0010 %
b0000000000000011 '
b0011111 ,
1-
13
#141
0-
#142
0#
b0001 %
b0000000000000010 '
b1110 *
0+
b0111110 ,
1-
b00000011 1
03
b00000000000000000000000000000010 4
b00000000000000000000000000000011 5
#143
0-
#144
b0000 %
b0000000000000001 '
b1101 *
1+
b1111101 ,
1-
#145
0-
#146
b1100 %
b0000000000000000 '
b1010 *
0+
b1111010 ,
1-
#147
0-
#148
1#
b1011 %
b0000000000000011 '
b0101 *
1+
b1110101 ,
1-
13
#149
0-
#150
0#
b1010 %
b0000000000000010 '
b1010 *
0+
b1101010 ,
1-
b00000111 1
03
b00000000000000000000000000000011 4
b00000000000000000000000000000100 5
#151
0-
#152
b1001 %
b0000000000000001 '
b0100 *
b1010100 ,
1-
#153
0-
#154
b1000 %
b0000000000000000 '
b1001 *
1+
b0101001 ,
1-
#155
0-
#156
1#
b0111 %
b0000000000000011 '
b0011 *
b1010011 ,
1-
13
#157
0-
#158
0#
b0110 %
b0000000000000010 '
b0110 *
0+
b0100110 ,
1-
b00001111 1
03
b00000000000000000000000000000100 4
b00000000000000000000000000000101 5
#159
0-
#160
b0101 %
b0000000000000001 '
b1100 *
b1001100 ,
1-
#161
0-
#162
b0100 %
b0000000000000000 '
b1000 *
b0011000 ,
1-
#163
0-
#164
1#
b0011 %
b0000000000000011 '
b0001 *
1+
b0110001 ,
1-
13
#165
0-
#166
0#
b0010 %
b0000000000000010 '
b0010 *
0+
b1100010 ,
1-
b00011111 1
03
b00000000000000000000000000000101 4
b00000000000000000000000000000110 5
#167
0-
#168
b0001 %
b0000000000000001 '
b0100 *
b1000100 ,
1-
#169
0-
#170
b0000 %
b0000000000000000 '
b1000 *
b0001000 ,
1-
#171
0-
#172
1#
b0111 %
b0000000000000011 '
b0000 *
b0010000 ,
1-
13
#173
0-
#174
0#
b0110 %
b0000000000000010 '
b0001 *
1+
b0100001 ,
1-
b00111111 1
03
b00000000000000000000000000000110 4
b00000000000000000000000000000111 5
#175
0-
#176
b0101 %
b0000000000000001 '
b0011 *
b1000011 ,
1-
#177
0-
#178
b0100 %
b0000000000000000 '
b0111 *
b0000111 ,
1-
#179
0-
#180
1#
b0011 %
b0000000000000011 '
b1111 *
b0001111 ,
1-
13
#181
0-
#182
0#
b0010 %
b0000000000000010 '
b0011111 ,
1-
b01111111 1
03
b00000000000000000000000000000111 4
b00000000000000000000000000001000 5
#183
0-
#184
b0001 %
b0000000000000001 '
b1110 *
0+
b0111110 ,
1-
#185
0-
#186
b0000 %
b0000000000000000 '
b1101 *
1+
b1111101 ,
1-
#187
0-
#188
1#
b1100 %
b0000000000000011 '
b1010 *
0+
b1111010 ,
1-
13
#189
0-
#190
0#
b1011 %
b0000000000000010 '
1)
b0101 *
1+
b1110101 ,
1-
b11111111 1
03
b00000000000000000000000000001000 4
b00000000000000000000000000000000 5
b00000000000000000000000000000001 6
#191
0-
#192
b0100 %
b00000000000000000000000000000001 &
b0000000000000001 '
b1010 *
0+
b1101010 ,
1-
#193
0-
#194
b1001 %
b0000000000000000 '
b0100 *
b1010100 ,
1-
#195
0-
#196
1#
b0011 %
b0000000000000011 '
b1001 *
1+
b0101001 ,
1-
13
#197
0-
#198
0#
b1000 %
b0000000000000010 '
b0011 *
b1010011 ,
1-
b00000000 1
03
b00000000000000000000000000000000 4
b00000000000000000000000000000001 5
#199
0-
#200
b0010 %
b0000000000000001 '
b0110 *
0+
b0100110 ,
1-
#201
0-
#202
b0101 %
b0000000000000000 '
b1100 *
b1001100 ,
1-
#203
0-
#204
1#
b1011 %
b0000000000000011 '
b1000 *
b0011000 ,
1-
13
#205
0-
#206
0#
b0111 %
b0000000000000010 '
b0001 *
1+
b0110001 ,
1-
b00000001 1
03
b00000000000000000000000000000001 4
b00000000000000000000000000000010 5
#207
0-
#208
b0000 %
b0000000000000001 '
b0010 *
0+
b1100010 ,
1-
b00000000000000000000000000000010 6
#209
0-
#210
1$
b0001 %
b00000000000000000000000000000010 &
b0000000000000000 '
b0100 *
b1000100 ,
1-
12
b00000000000000000000000000000011 6
#211
0-
#212
1#
0$
b0011 %
b00000000000000000000000000000011 &
b0000000000000011 '
b1000 *
b0001000 ,
1-
02
13
#213
0-
#214
0#
b0111 %
b0000000000000010 '
b0000 *
b0010000 ,
1-
b00000011 1
03
b00000000000000000000000000000010 4
b00000000000000000000000000000011 5
#215
0-
#216
b1111 %
b0000000000000001 '
b0001 *
1+
b0100001 ,
1-
#217
0-
#218
b0000 %
b0000000000000000 '
b0011 *
b1000011 ,
1-
#219
0-
#220
1#
b0010 %
b0000000000000011 '
b0111 *
b0000111 ,
1-
13
#221
0-
#222
0#
b0110 %
b0000000000000010 '
b1111 *
b0001111 ,
1-
b00000111 1
03
b00000000000000000000000000000011 4
b00000000000000000000000000000100 5
#223
0-
#224
b1110 %
b0000000000000001 '
b0011111 ,
1-
#225
0-
#226
b0000000000000000 '
b1110 *
0+
b0111110 ,
1-
#227
0-
#228
1#
b1101 %
b0000000000000011 '
b1101 *
1+
b1111101 ,
1-
13
#229
0-
#230
0#
b1100 %
b0000000000000010 '
b1010 *
0+
b1111010 ,
1-
b00001111 1
03
b00000000000000000000000000000100 4
b00000000000000000000000000000101 5
#231
0-
#232
b1001 %
b0000000000000001 '
b0101 *
1+
b1110101 ,
1-
#233
0-
#234
b0100 %
b0000000000000000 '
b1010 *
0+
b1101010 ,
1-
#235
0-
#236
1#
b1001 %
b0000000000000011 '
b0100 *
b1010100 ,
1-
13
#237
0-
#238
0#
b0011 %
b0000000000000010 '
b1001 *
1+
b0101001 ,
1-
b00011111 1
03
b00000000000000000000000000000101 4
b00000000000000000000000000000110 5
#239
0-
#240
b1000 %
b0000000000000001 '
b0011 *
b1010011 ,
1-
#241
0-
#242
b0010 %
b0000000000000000 '
b0110 *
0+
b0100110 ,
1-
#243
0-
#244
1#
b0101 %
b0000000000000011 '
b1100 *
b1001100 ,
1-
13
#245
0-
#246
0#
b1011 %
b0000000000000010 '
b1000 *
b0011000 ,
1-
b00111111 1
03
b00000000000000000000000000000110 4
b00000000000000000000000000000111 5
#247
0-
#248
b0111 %
b0000000000000001 '
b0001 *
1+
b0110001 ,
1-
#249
0-
#250
b0000 %
b0000000000000000 '
b0010 *
0+
b1100010 ,
1-
#251
0-
#252
1#
b0001 %
b0000000000000011 '
b0100 *
b1000100 ,
1-
13
#253
0-
#254
0#
b0011 %
b0000000000000010 '
b1000 *
b0001000 ,
1-
b01111111 1
03
b00000000000000000000000000000111 4
b00000000000000000000000000001000 5
#255
0-
#256
b0111 %
b0000000000000001 '
b0000 *
b0010000 ,
1-
#257
0-
#258
b1111 %
b0000000000000000 '
b0001 *
1+
b0100001 ,
1-
#259
0-
#260
1#
b0000 %
b0000000000000011 '
b0011 *
b1000011 ,
1-
13
#261
0-
#262
0#
b0010 %
b0000000000000010 '
b0111 *
b0000111 ,
1-
b11111111 1
03
b00000000000000000000000000001000 4
b00000000000000000000000000000000 5
#263
0-
#264
b0110 %
b0000000000000001 '
b1111 *
b0001111 ,
1-
#265
0-
#266
b1110 %
b0000000000000000 '
b0011111 ,
1-
#267
0-
#268
1#
b0000000000000011 '
b1110 *
0+
b0111110 ,
1-
13
#269
0-
#270
0#
b1101 %
b0000000000000010 '
b1101 *
1+
b1111101 ,
1-
b00000000 1
03
b00000000000000000000000000000000 4
b00000000000000000000000000000001 5
#271
0-
#272
b1100 %
b0000000000000001 '
b1010 *
0+
b1111010 ,
1-
#273
0-
#274
b1001 %
b0000000000000000 '
b0101 *
1+
b1110101 ,
1-
#275
0-
#276
1#
b0100 %
b0000000000000011 '
b1010 *
0+
b1101010 ,
1-
13
#277
0-
#278
0#
b1001 %
b0000000000000010 '
b0100 *
b1010100 ,
1-
b00000001 1
03
b00000000000000000000000000000001 4
b00000000000000000000000000000010 5
#279
0-
#280
b0011 %
b0000000000000001 '
b1001 *
1+
b0101001 ,
1-
#281
0-
#282
b1000 %
b0000000000000000 '
b0011 *
b1010011 ,
1-
#283
0-
#284
1#
b0010 %
b0000000000000011 '
b0110 *
0+
b0100110 ,
1-
13
#285
0-
#286
0#
b0101 %
b0000000000000010 '
b1100 *
b1001100 ,
1-
b00000011 1
03
b00000000000000000000000000000010 4
b00000000000000000000000000000011 5
#287
0-
#288
b1011 %
b0000000000000001 '
b1000 *
b0011000 ,
1-
#289
0-
#290
b0111 %
b0000000000000000 '
b0001 *
1+
b0110001 ,
1-
#291
0-
#292
1#
b0000 %
b0000000000000011 '
b0010 *
0+
b1100010 ,
1-
13
#293
0-
#294
0#
b0001 %
b0000000000000010 '
b0100 *
b1000100 ,
1-
b00000111 1
03
b00000000000000000000000000000011 4
b00000000000000000000000000000100 5
#295
0-
#296
b0011 %
b0000000000000001 '
b1000 *
b0001000 ,
1-
#297
0-
#298
b0111 %
b0000000000000000 '
b0000 *
b0010000 ,
1-
#299
0-
#300
1#
b1111 %
b0000000000000011 '
b0001 *
1+
b0100001 ,
1-
13
#301
0-
#302
0#
b0000 %
b0000000000000010 '
b0011 *
b1000011 ,
1-
b00001111 1
03
b00000000000000000000000000000100 4
b00000000000000000000000000000101 5
#303
0-
#304
b0010 %
b0000000000000001 '
b0111 *
b0000111 ,
1-
#305
0-
#306
b0110 %
b0000000000000000 '
b1111 *
b0001111 ,
1-
#307
0-
#308
1#
b1110 %
b0000000000000011 '
b0011111 ,
1-
13
#309
0-
#310
0#
b0000000000000010 '
b1110 *
0+
b0111110 ,
1-
b00011111 1
03
b00000000000000000000000000000101 4
b00000000000000000000000000000110 5
#311
0-
#312
b1101 %
b0000000000000001 '
b1101 *
1+
b1111101 ,
1-
#313
0-
#314
b1100 %
b0000000000000000 '
b1010 *
0+
b1111010 ,
1-
#315
0-
#316
1#
b1001 %
b0000000000000011 '
b0101 *
1+
b1110101 ,
1-
13
#317
0-
#318
0#
b0100 %
b0000000000000010 '
b1010 *
0+
b1101010 ,
1-
b00111111 1
03
b00000000000000000000000000000110 4
b00000000000000000000000000000111 5
#319
0-
#320
b1001 %
b0000000000000001 '
b0100 *
b1010100 ,
1-
#321
0-
#322
b0011 %
b0000000000000000 '
b1001 *
1+
b0101001 ,
1-
#323
0-
#324
1#
b1000 %
b0000000000000011 '
b0011 *
b1010011 ,
1-
13
#325
0-
#326
0#
b0010 %
b0000000000000010 '
b0110 *
0+
b0100110 ,
1-
b01111111 1
03
b00000000000000000000000000000111 4
b00000000000000000000000000001000 5
#327
0-
#328
b0101 %
b0000000000000001 '
b1100 *
b1001100 ,
1-
#329
0-
#330
b1011 %
b0000000000000000 '
b1000 *
b0011000 ,
1-
#331
0-
#332
1#
b0111 %
b0000000000000011 '
b0001 *
1+
b0110001 ,
1-
13
#333
0-
#334
0#
b0000 %
b0000000000000010 '
b0010 *
0+
b1100010 ,
1-
b11111111 1
03
b00000000000000000000000000001000 4
b00000000000000000000000000000000 5
#335
0-
#336
b0001 %
b0000000000000001 '
b0100 *
b1000100 ,
1-
#337
0-
#338
b0011 %
b0000000000000000 '
b1000 *
b0001000 ,
1-
#339
0-
#340
1#
b0111 %
b0000000000000011 '
b0000 *
b0010000 ,
1-
13
#341
0-
#342
0#
b1111 %
b0000000000000010 '
b0001 *
1+
b0100001 ,
1-
b00000000 1
03
b00000000000000000000000000000000 4
b00000000000000000000000000000001 5
#343
0-
#344
b0000 %
b0000000000000001 '
b0011 *
b1000011 ,
1-
#345
0-
#346
b0010 %
b0000000000000000 '
b0111 *
b0000111 ,
1-
#347
0-
#348
1#
b0110 %
b0000000000000011 '
b1111 *
b0001111 ,
1-
13
#349
0-
#350
0#
b1110 %
b0000000000000010 '
b0011111 ,
1-
b00000001 1
03
b00000000000000000000000000000001 4
b00000000000000000000000000000010 5
#351
0-
#352
b0000000000000001 '
b1110 *
0+
b0111110 ,
1-
#353
0-
#354
b1101 %
b0000000000000000 '
b1101 *
1+
b1111101 ,
1-
#355
0-
#356
1#
b1100 %
b0000000000000011 '
b1010 *
0+
b1111010 ,
1-
13
#357
0-
#358
0#
b1001 %
b0000000000000010 '
b0101 *
1+
b1110101 ,
1-
b00000011 1
03
b00000000000000000000000000000010 4
b00000000000000000000000000000011 5
#359
0-
#360
b0100 %
b0000000000000001 '
b1010 *
0+
b1101010 ,
1-
#361
0-
#362
b1001 %
b0000000000000000 '
b0100 *
b1010100 ,
1-
#363
0-
#364
1#
b0011 %
b0000000000000011 '
b1001 *
1+
b0101001 ,
1-
13
#365
0-
#366
0#
b1000 %
b0000000000000010 '
b0011 *
b1010011 ,
1-
b00000111 1
03
b00000000000000000000000000000011 4
b00000000000000000000000000000100 5
#367
0-
#368
b0010 %
b0000000000000001 '
b0110 *
0+
b0100110 ,
1-
#369
0-
#370
b0101 %
b0000000000000000 '
b1100 *
b1001100 ,
1-
#371
0-
#372
1#
b1011 %
b0000000000000011 '
b1000 *
b0011000 ,
1-
13
#373
0-
#374
0#
b0111 %
b0000000000000010 '
b0001 *
1+
b0110001 ,
1-
b00001111 1
03
b00000000000000000000000000000100 4
b00000000000000000000000000000101 5
#375
0-
#376
b0000 %
b0000000000000001 '
b0010 *
0+
b1100010 ,
1-
#377
0-
#378
b0001 %
b0000000000000000 '
b0100 *
b1000100 ,
1-
#379
0-
#380
1#
b0011 %
b0000000000000011 '
b1000 *
b0001000 ,
1-
13
#381
0-
#382
0#
b0111 %
b0000000000000010 '
b0000 *
b0010000 ,
1-
b00011111 1
03
b00000000000000000000000000000101 4
b00000000000000000000000000000110 5
#383
0-
#384
b1111 %
b0000000000000001 '
b0001 *
1+
b0100001 ,
1-
#385
0-
#386
b0000 %
b0000000000000000 '
b0011 *
b1000011 ,
1-
#387
0-
#388
1#
b0010 %
b0000000000000011 '
b0111 *
b0000111 ,
1-
13
#389
0-
#390
0#
b0110 %
b0000000000000010 '
b1111 *
b0001111 ,
1-
b00111111 1
03
b00000000000000000000000000000110 4
b00000000000000000000000000000111 5
#391
0-
#392
b1110 %
b0000000000000001 '
b0011111 ,
1-
#393
0-
#394
b0000000000000000 '
b1110 *
0+
b0111110 ,
1-
#395
0-
#396
1#
b1101 %
b0000000000000011 '
b1101 *
1+
b1111101 ,
1-
13
#397
0-
#398
0#
b1100 %
b0000000000000010 '
b1010 *
0+
b1111010 ,
1-
b01111111 1
03
b00000000000000000000000000000111 4
b00000000000000000000000000001000 5
#399
0-
#400
b1001 %
b0000000000000001 '
b0101 *
1+
b1110101 ,
1-
#401
0-
#402
b0100 %
b0000000000000000 '
b1010 *
0+
b1101010 ,
1-
#403
0-
#404
1#
b1001 %
b0000000000000011 '
b0100 *
b1010100 ,
1-
13
#405
0-
#406
0#
b0011 %
b0000000000000010 '
b1001 *
1+
b0101001 ,
1-
b11111111 1
03
b00000000000000000000000000001000 4
b00000000000000000000000000000000 5
#407
0-
#408
b1000 %
b0000000000000001 '
b0011 *
b1010011 ,
1-
#409
0-
#410
b0010 %
b0000000000000000 '
b0110 *
0+
b0100110 ,
1-
#411
0-
#412
1#
b0101 %
b0000000000000011 '
b1100 *
b1001100 ,
1-
13
#413
0-
#414
0#
b1011 %
b0000000000000010 '
b1000 *
b0011000 ,
1-
b00000000 1
03
b00000000000000000000000000000000 4
b00000000000000000000000000000001 5
#415
0-
#416
b0111 %
b0000000000000001 '
b0001 *
1+
b0110001 ,
1-
#417
0-
#418
b0000 %
b0000000000000000 '
b0010 *
0+
b1100010 ,
1-
#419
0-
#420
1#
b0001 %
b0000000000000011 '
b0100 *
b1000100 ,
1-
13
#421
0-
#422
0#
b0011 %
b0000000000000010 '
b1000 *
b0001000 ,
1-
b00000001 1
03
b00000000000000000000000000000001 4
b00000000000000000000000000000010 5
#423
0-
#424
b0111 %
b0000000000000001 '
b0000 *
b0010000 ,
1-
#425
0-
#426
b1111 %
b0000000000000000 '
b0001 *
1+
b0100001 ,
1-
#427
0-
#428
1#
b0000 %
b0000000000000011 '
b0011 *
b1000011 ,
1-
13
#429
0-
#430
0#
b0010 %
b0000000000000010 '
b0111 *
b0000111 ,
1-
b00000011 1
03
b00000000000000000000000000000010 4
b00000000000000000000000000000011 5
#431
0-
#432
b0110 %
b0000000000000001 '
b1111 *
b0001111 ,
1-
#433
0-
#434
b1110 %
b0000000000000000 '
b0011111 ,
1-
#435
0-
#436
1#
b0000000000000011 '
b1110 *
0+
b0111110 ,
1-
13
#437
0-
#438
0#
b1101 %
b0000000000000010 '
b1101 *
1+
b1111101 ,
1-
b00000111 1
03
b00000000000000000000000000000011 4
b00000000000000000000000000000100 5
#439
0-
#440
b1100 %
b0000000000000001 '
b1010 *
0+
b1111010 ,
1-
#441
0-
#442
b1001 %
b0000000000000000 '
b0101 *
1+
b1110101 ,
1-
#443
0-
#444
1#
b0100 %
b0000000000000011 '
b1010 *
0+
b1101010 ,
1-
13
#445
0-
#446
0#
b1001 %
b0000000000000010 '
b0100 *
b1010100 ,
1-
b00001111 1
03
b00000000000000000000000000000100 4
b00000000000000000000000000000101 5
#447
0-
#448
b0011 %
b0000000000000001 '
b1001 *
1+
b0101001 ,
1-
#449
0-
#450
b1000 %
b0000000000000000 '
b0011 *
b1010011 ,
1-
#451
0-
#452
1#
b0010 %
b0000000000000011 '
b0110 *
0+
b0100110 ,
1-
13
#453
0-
#454
0#
b0101 %
b0000000000000010 '
b1100 *
b1001100 ,
1-
b00011111 1
03
b00000000000000000000000000000101 4
b00000000000000000000000000000110 5
#455
0-
#456
b1011 %
b0000000000000001 '
b1000 *
b0011000 ,
1-
#457
0-
#458
b0111 %
b0000000000000000 '
b0001 *
1+
b0110001 ,
1-
#459
0-
#460
1#
b0000 %
b0000000000000011 '
b0010 *
0+
b1100010 ,
1-
13
#461
0-
#462
0#
b0001 %
b0000000000000010 '
b0100 *
b1000100 ,
1-
b00111111 1
03
b00000000000000000000000000000110 4
b00000000000000000000000000000111 5
#463
0-
#464
b0011 %
b0000000000000001 '
b1000 *
b0001000 ,
1-
#465
0-
#466
b0111 %
b0000000000000000 '
b0000 *
b0010000 ,
1-
#467
0-
#468
1#
b1111 %
b0000000000000011 '
b0001 *
1+
b0100001 ,
1-
13
#469
0-
#470
0#
b0000 %
b0000000000000010 '
b0011 *
b1000011 ,
1-
b01111111 1
03
b00000000000000000000000000000111 4
b00000000000000000000000000001000 5
#471
0-
#472
b0010 %
b0000000000000001 '
b0111 *
b0000111 ,
1-
#473
0-
#474
b0110 %
b0000000000000000 '
b1111 *
b0001111 ,
1-
#475
0-
#476
1#
b1110 %
b0000000000000011 '
b0011111 ,
1-
13
#477
0-
#478
0#
b0000000000000010 '
b1110 *
0+
b0111110 ,
1-
b11111111 1
03
b00000000000000000000000000001000 4
b00000000000000000000000000000000 5
#479
0-
#480
b1101 %
b0000000000000001 '
b1101 *
1+
b1111101 ,
1-
#481
0-
#482
b1100 %
b0000000000000000 '
b1010 *
0+
b1111010 ,
1-
#483
0-
#484
1#
b1001 %
b0000000000000011 '
b0101 *
1+
b1110101 ,
1-
13
#485
0-
#486
0#
b0100 %
b0000000000000010 '
b1010 *
0+
b1101010 ,
1-
b00000000 1
03
b00000000000000000000000000000000 4
b00000000000000000000000000000001 5
#487
0-
#488
b1001 %
b0000000000000001 '
b0100 *
b1010100 ,
1-
#489
0-
#490
b0011 %
b0000000000000000 '
b1001 *
1+
b0101001 ,
1-
#491
0-
#492
1#
b1000 %
b0000000000000011 '
b0011 *
b1010011 ,
1-
13
#493
0-
#494
0#
b0010 %
b0000000000000010 '
b0110 *
0+
b0100110 ,
1-
b00000001 1
03
b00000000000000000000000000000001 4
b00000000000000000000000000000010 5
#495
0-
#496
b0101 %
b0000000000000001 '
b1100 *
b1001100 ,
1-
#497
0-
#498
b1011 %
b0000000000000000 '
b1000 *
b0011000 ,
1-
#499
0-
#500
1#
b0111 %
b0000000000000011 '
b0001 *
1+
b0110001 ,
1-
13
#501
0-
#502
0#
b0000 %
b0000000000000010 '
b0010 *
0+
b1100010 ,
1-
b00000011 1
03
b00000000000000000000000000000010 4
b00000000000000000000000000000011 5
#503
0-
#504
b0001 %
b0000000000000001 '
b0100 *
b1000100 ,
1-
#505
0-
#506
b0011 %
b0000000000000000 '
b1000 *
b0001000 ,
1-
#507
0-
#508
1#
b0111 %
b0000000000000011 '
b0000 *
b0010000 ,
1-
13
#509
0-
#510
0#
b1111 %
b0000000000000010 '
b0001 *
1+
b0100001 ,
1-
b00000111 1
03
b00000000000000000000000000000011 4
b00000000000000000000000000000100 5
#511
0-
#512
b0000 %
b0000000000000001 '
b0011 *
b1000011 ,
1-
#513
0-
#514
b0010 %
b0000000000000000 '
b0111 *
b0000111 ,
1-
#515
0-
#516
1#
b0110 %
b0000000000000011 '
b1111 *
b0001111 ,
1-
13
#517
0-
#518
0#
b1110 %
b0000000000000010 '
b0011111 ,
1-
b00001111 1
03
b00000000000000000000000000000100 4
b00000000000000000000000000000101 5
#519
0-
#520
b0000000000000001 '
b1110 *
0+
b0111110 ,
1-
#521
0-
#522
b1101 %
b0000000000000000 '
b1101 *
1+
b1111101 ,
1-
#523
0-
#524
1#
b1100 %
b0000000000000011 '
b1010 *
0+
b1111010 ,
1-
13
#525
0-
#526
0#
b1001 %
b0000000000000010 '
b0101 *
1+
b1110101 ,
1-
b00011111 1
03
b00000000000000000000000000000101 4
b00000000000000000000000000000110 5
#527
0-
#528
b0100 %
b0000000000000001 '
b1010 *
0+
b1101010 ,
1-
#529
0-
#530
b1001 %
b0000000000000000 '
b0100 *
b1010100 ,
1-
#531
0-
#532
1#
b0011 %
b0000000000000011 '
b1001 *
1+
b0101001 ,
1-
13
#533
0-
#534
0#
b1000 %
b0000000000000010 '
b0011 *
b1010011 ,
1-
b00111111 1
03
b00000000000000000000000000000110 4
b00000000000000000000000000000111 5
#535
0-
#536
b0010 %
b0000000000000001 '
b0110 *
0+
b0100110 ,
1-
#537
0-
#538
b0101 %
b0000000000000000 '
b1100 *
b1001100 ,
1-
#539
0-
#540
1#
b1011 %
b0000000000000011 '
b1000 *
b0011000 ,
1-
13
#541
0-
#542
0#
b0111 %
b0000000000000010 '
b0001 *
1+
b0110001 ,
1-
b01111111 1
03
b00000000000000000000000000000111 4
b00000000000000000000000000001000 5
#543
0-
#544
b0000 %
b0000000000000001 '
b0010 *
0+
b1100010 ,
1-
#545
0-
#546
b0001 %
b0000000000000000 '
b0100 *
b1000100 ,
1-
#547
0-
#548
1#
b0011 %
b0000000000000011 '
b1000 *
b0001000 ,
1-
13
#549
0-
