task4/top.vcd
$version Generated by VerilatedVcd $end
$date Thu Nov  3 23:28:35 2022 $end
$timescale 1ps $end

 $scope module TOP $end
  $var wire  7 . N [6:0] $end
  $var wire  1 , clk $end
  $var wire  8 0 data_out [7:0] $end
  $var wire  1 - rst $end
  $var wire  1 1 test $end
  $var wire  1 / trigger $end
  $scope module top $end
   $var wire  7 . N [6:0] $end
   $var wire 32 7 WIDTH [31:0] $end
   $var wire  1 , clk $end
   $var wire  1 ) cmd_delay $end
   $var wire  1 ( cmd_seq $end
   $var wire  8 0 data_out [7:0] $end
   $var wire  7 * k [7:1] $end
   $var wire  1 2 mux_out $end
   $var wire  1 + random $end
   $var wire  1 - rst $end
   $var wire  1 1 test $end
   $var wire  1 # tick $end
   $var wire  1 $ time_out $end
   $var wire  1 / trigger $end
   $scope module fsm $end
    $var wire  1 , clk $end
    $var wire  1 ) cmd_delay $end
    $var wire  1 ( cmd_seq $end
    $var wire 32 3 current_state [31:0] $end
    $var wire  8 0 data_out [7:0] $end
    $var wire  1 2 en $end
    $var wire 32 4 next_state [31:0] $end
    $var wire  1 - rst $end
    $var wire  1 / trigger $end
   $upscope $end
   $scope module lfsr1 $end
    $var wire  1 , clk $end
    $var wire  7 * data_out [7:1] $end
    $var wire  1 8 en $end
    $var wire  7 * random [7:1] $end
    $var wire  1 - rst $end
    $var wire  7 * sreg [7:1] $end
   $upscope $end
   $scope module mux $end
    $var wire  1 ( cmd_seq $end
    $var wire  1 2 mux_out $end
    $var wire  1 # tick $end
    $var wire  1 $ time_out $end
   $upscope $end
   $scope module one_delay $end
    $var wire 32 7 WIDTH [31:0] $end
    $var wire  1 , clk $end
    $var wire  7 % count [6:0] $end
    $var wire 32 & current_state [31:0] $end
    $var wire  7 * n [6:0] $end
    $var wire 32 5 next_state [31:0] $end
    $var wire  1 - rst $end
    $var wire  1 $ time_out $end
    $var wire  1 ) trigger $end
   $upscope $end
   $scope module second $end
    $var wire  5 6 N [4:0] $end
    $var wire 32 9 WIDTH [31:0] $end
    $var wire  1 , clk $end
    $var wire  5 ' count [4:0] $end
    $var wire  1 ( en $end
    $var wire  1 - rst $end
    $var wire  1 # tick $end
   $upscope $end
  $upscope $end
 $upscope $end
$enddefinitions $end


#0
0#
0$
b0000000 %
b00000000000000000000000000000000 &
b00000 '
0(
0)
b0000000 *
0+
1,
0-
b0011001 .
0/
b00000000 0
01
02
b00000000000000000000000000000000 3
b00000000000000000000000000000000 4
b00000000000000000000000000000000 5
b11001 6
b00000000000000000000000000000111 7
18
b00000000000000000000000000000101 9
#1
1(
0,
#2
1#
b1111111 %
b11001 '
1,
1-
b0110011 .
12
b10011 6
#3
b0000001 *
1+
0,
#4
0#
b0000000 %
b10011 '
1,
02
#5
0,
#6
1,
0-
#7
0,
#8
b10010 '
b0000011 *
1,
#9
0,
#10
b0000010 %
b10001 '
b0000111 *
1,
#11
0,
#12
b0000001 %
b10000 '
b0001111 *
1,
#13
0,
#14
b0000000 %
b01111 '
b0011111 *
1,
#15
0,
#16
b0011110 %
b01110 '
b0111110 *
0+
1,
#17
0,
#18
b0011101 %
b01101 '
b1111101 *
1+
1,
#19
0,
#20
b0011100 %
b01100 '
b1111011 *
1,
#21
0,
#22
b0011011 %
b01011 '
b1110111 *
1,
#23
0,
#24
b0011010 %
b01010 '
b1101111 *
1,
#25
0,
#26
b0011001 %
b01001 '
b1011110 *
0+
1,
#27
0,
#28
b0011000 %
b01000 '
b0111100 *
1,
#29
0,
#30
b0010111 %
b00111 '
b1111001 *
1+
1,
#31
0,
#32
b0010110 %
b00110 '
b1110011 *
1,
#33
0,
#34
b0010101 %
b00101 '
b1100111 *
1,
#35
0,
#36
b0010100 %
b00100 '
b1001110 *
0+
1,
#37
0,
#38
b0010011 %
b00011 '
b0011101 *
1+
1,
#39
0,
#40
b0010010 %
b00010 '
b0111010 *
0+
1,
#41
0,
#42
b0010001 %
b00001 '
b1110101 *
1+
1,
#43
0,
#44
b0010000 %
b00000 '
b1101011 *
1,
#45
0,
#46
1#
b0001111 %
b10011 '
b1010110 *
0+
1,
12
#47
0,
#48
0#
b0001110 %
b10010 '
b0101100 *
1,
02
#49
0,
#50
b0001101 %
b10001 '
b1011000 *
1,
#51
0,
#52
b0001100 %
b10000 '
b0110000 *
1,
#53
0,
#54
b0001011 %
b01111 '
b1100001 *
1+
1,
#55
0,
#56
b0001010 %
b01110 '
b1000010 *
0+
1,
#57
0,
#58
b0001001 %
b01101 '
b0000101 *
1+
1,
#59
0,
#60
b0001000 %
b01100 '
b0001011 *
1,
#61
0,
#62
b0000111 %
b01011 '
b0010111 *
1,
#63
0,
#64
b0000110 %
b01010 '
b0101110 *
0+
1,
#65
0,
#66
b0000101 %
b01001 '
b1011100 *
1,
#67
0,
#68
b0000100 %
b01000 '
b0111000 *
1,
#69
0,
#70
b0000011 %
b00111 '
b1110001 *
1+
1,
#71
0,
#72
b0000010 %
b00110 '
b1100011 *
1,
#73
0,
#74
b0000001 %
b00101 '
b1000110 *
0+
1,
#75
0,
#76
b0000000 %
b00100 '
b0001101 *
1+
1,
#77
0,
#78
b0001100 %
b00011 '
b0011011 *
1,
#79
0,
#80
b0001011 %
b00010 '
b0110110 *
0+
1,
#81
0,
#82
b0001010 %
b00001 '
b1101101 *
1+
1,
#83
0,
#84
b0001001 %
b00000 '
b1011010 *
0+
1,
#85
0,
#86
1#
b0001000 %
b10011 '
b0110100 *
1,
12
#87
0,
#88
0#
b0000111 %
b10010 '
b1101001 *
1+
1,
02
#89
0,
#90
b0000110 %
b10001 '
b1010010 *
0+
1,
#91
0,
#92
b0000101 %
b10000 '
b0100100 *
1,
#93
0,
#94
b0000100 %
b01111 '
b1001000 *
1,
#95
0,
#96
b0000011 %
b01110 '
b0010001 *
1+
1,
#97
0,
#98
b0000010 %
b01101 '
b0100010 *
0+
1,
#99
0,
#100
b0000001 %
b01100 '
b1000100 *
1,
#101
0,
#102
b0000000 %
b01011 '
b0001001 *
1+
1,
#103
0,
#104
b0001000 %
b01010 '
b0010011 *
1,
#105
0,
#106
b0000111 %
b01001 '
b0100110 *
0+
1,
#107
0,
#108
b0000110 %
b01000 '
b1001100 *
1,
#109
0,
#110
b0000101 %
b00111 '
b0011001 *
1+
1,
#111
0,
#112
b0000100 %
b00110 '
b0110010 *
0+
1,
#113
0,
#114
b0000011 %
b00101 '
b1100101 *
1+
1,
#115
0,
#116
b0000010 %
b00100 '
b1001010 *
0+
1,
#117
0,
#118
b0000001 %
b00011 '
b0010101 *
1+
1,
#119
0,
#120
b0000000 %
b00010 '
b0101010 *
0+
1,
#121
0,
#122
b0101001 %
b00001 '
b1010100 *
1,
#123
0,
#124
b0101000 %
b00000 '
b0101000 *
1,
#125
0,
#126
1#
b0100111 %
b10011 '
b1010000 *
1,
12
#127
0,
#128
0#
b0100110 %
b10010 '
b0100000 *
1,
02
#129
0,
#130
b0100101 %
b10001 '
b1000000 *
1,
#131
0,
#132
b0100100 %
b10000 '
b0000001 *
1+
1,
#133
0,
#134
b0100011 %
b01111 '
b0000011 *
1,
#135
0,
#136
b0100010 %
b01110 '
b0000111 *
1,
#137
0,
#138
b0100001 %
b01101 '
b0001111 *
1,
#139
0,
#140
b0100000 %
b01100 '
b0011111 *
1,
#141
0,
#142
b0011111 %
b01011 '
b0111110 *
0+
1,
#143
0,
#144
b0011110 %
b01010 '
b1111101 *
1+
1,
#145
0,
#146
b0011101 %
b01001 '
b1111011 *
1,
#147
0,
#148
b0011100 %
b01000 '
b1110111 *
1,
#149
0,
#150
b0011011 %
b00111 '
b1101111 *
1,
#151
0,
#152
b0011010 %
b00110 '
b1011110 *
0+
1,
#153
0,
#154
b0011001 %
b00101 '
b0111100 *
1,
#155
0,
#156
b0011000 %
b00100 '
b1111001 *
1+
1,
#157
0,
#158
b0010111 %
b00011 '
b1110011 *
1,
#159
0,
#160
b0010110 %
b00010 '
b1100111 *
1,
#161
0,
#162
b0010101 %
b00001 '
b1001110 *
0+
1,
#163
0,
#164
b0010100 %
b00000 '
b0011101 *
1+
1,
#165
0,
#166
1#
b0010011 %
b10011 '
b0111010 *
0+
1,
12
#167
0,
#168
0#
b0010010 %
b10010 '
b1110101 *
1+
1,
02
#169
0,
#170
b0010001 %
b10001 '
b1101011 *
1,
#171
0,
#172
b0010000 %
b10000 '
b1010110 *
0+
1,
#173
0,
#174
b0001111 %
b01111 '
b0101100 *
1,
#175
0,
#176
b0001110 %
b01110 '
b1011000 *
1,
#177
0,
#178
b0001101 %
b01101 '
b0110000 *
1,
#179
0,
#180
b0001100 %
b01100 '
b1100001 *
1+
1,
#181
0,
#182
b0001011 %
b01011 '
b1000010 *
0+
1,
#183
0,
#184
b0001010 %
b01010 '
b0000101 *
1+
1,
#185
0,
#186
b0001001 %
b01001 '
b0001011 *
1,
#187
0,
#188
b0001000 %
b01000 '
b0010111 *
1,
#189
0,
#190
b0000111 %
b00111 '
b0101110 *
0+
1,
#191
0,
#192
b0000110 %
b00110 '
b1011100 *
1,
#193
0,
#194
b0000101 %
b00101 '
b0111000 *
1,
#195
0,
#196
b0000100 %
b00100 '
b1110001 *
1+
1,
#197
0,
#198
b0000011 %
b00011 '
b1100011 *
1,
#199
0,
#200
b0000010 %
b00010 '
b1000110 *
0+
1,
#201
0,
#202
b0000001 %
b00001 '
b0001101 *
1+
1,
#203
0,
#204
b0000000 %
b00000 '
b0011011 *
1,
#205
0,
#206
1#
b0011010 %
b10011 '
b0110110 *
0+
1,
12
#207
0,
#208
0#
b0011001 %
b10010 '
b1101101 *
1+
1,
02
#209
0,
#210
b0011000 %
b10001 '
b1011010 *
0+
1,
#211
0,
#212
b0010111 %
b10000 '
b0110100 *
1,
#213
0,
#214
b0010110 %
b01111 '
b1101001 *
1+
1,
#215
0,
#216
b0010101 %
b01110 '
b1010010 *
0+
1,
#217
0,
#218
b0010100 %
b01101 '
b0100100 *
1,
#219
0,
#220
b0010011 %
b01100 '
b1001000 *
1,
#221
0,
#222
b0010010 %
b01011 '
b0010001 *
1+
1,
#223
0,
#224
b0010001 %
b01010 '
b0100010 *
0+
1,
#225
0,
#226
b0010000 %
b01001 '
b1000100 *
1,
#227
0,
#228
b0001111 %
b01000 '
b0001001 *
1+
1,
#229
0,
#230
b0001110 %
b00111 '
b0010011 *
1,
1/
b00000000000000000000000000000001 4
#231
0,
#232
b0001101 %
b00110 '
b0100110 *
0+
1,
0/
b00000001 0
b00000000000000000000000000000001 3
b00000000000000000000000000000010 4
#233
0,
#234
b0001100 %
b00101 '
b1001100 *
1,
#235
0,
#236
b0001011 %
b00100 '
b0011001 *
1+
1,
#237
0,
#238
b0001010 %
b00011 '
b0110010 *
0+
1,
#239
0,
#240
b0001001 %
b00010 '
b1100101 *
1+
1,
#241
0,
#242
b0001000 %
b00001 '
b1001010 *
0+
1,
#243
0,
#244
b0000111 %
b00000 '
b0010101 *
1+
1,
#245
0,
#246
1#
b0000110 %
b10011 '
b0101010 *
0+
1,
12
#247
0,
#248
0#
b0000101 %
b10010 '
b1010100 *
1,
b00000011 0
02
b00000000000000000000000000000010 3
b00000000000000000000000000000011 4
#249
0,
#250
b0000100 %
b10001 '
b0101000 *
1,
#251
0,
#252
b0000011 %
b10000 '
b1010000 *
1,
#253
0,
#254
b0000010 %
b01111 '
b0100000 *
1,
#255
0,
#256
b0000001 %
b01110 '
b1000000 *
1,
#257
0,
#258
b0000000 %
b01101 '
b0000001 *
1+
1,
#259
0,
#260
b01100 '
b0000011 *
1,
#261
0,
#262
b0000010 %
b01011 '
b0000111 *
1,
#263
0,
#264
b0000001 %
b01010 '
b0001111 *
1,
#265
0,
#266
b0000000 %
b01001 '
b0011111 *
1,
#267
0,
#268
b0011110 %
b01000 '
b0111110 *
0+
1,
#269
0,
#270
b0011101 %
b00111 '
b1111101 *
1+
1,
#271
0,
#272
b0011100 %
b00110 '
b1111011 *
1,
#273
0,
#274
b0011011 %
b00101 '
b1110111 *
1,
#275
0,
#276
b0011010 %
b00100 '
b1101111 *
1,
#277
0,
#278
b0011001 %
b00011 '
b1011110 *
0+
1,
#279
0,
#280
b0011000 %
b00010 '
b0111100 *
1,
#281
0,
#282
b0010111 %
b00001 '
b1111001 *
1+
1,
#283
0,
#284
b0010110 %
b00000 '
b1110011 *
1,
#285
0,
#286
1#
b0010101 %
b10011 '
b1100111 *
1,
12
#287
0,
#288
0#
b0010100 %
b10010 '
b1001110 *
0+
1,
b00000111 0
02
b00000000000000000000000000000011 3
b00000000000000000000000000000100 4
#289
0,
#290
b0010011 %
b10001 '
b0011101 *
1+
1,
#291
0,
#292
b0010010 %
b10000 '
b0111010 *
0+
1,
#293
0,
#294
b0010001 %
b01111 '
b1110101 *
1+
1,
#295
0,
#296
b0010000 %
b01110 '
b1101011 *
1,
#297
0,
#298
b0001111 %
b01101 '
b1010110 *
0+
1,
#299
0,
#300
b0001110 %
b01100 '
b0101100 *
1,
#301
0,
#302
b0001101 %
b01011 '
b1011000 *
1,
#303
0,
#304
b0001100 %
b01010 '
b0110000 *
1,
#305
0,
#306
b0001011 %
b01001 '
b1100001 *
1+
1,
#307
0,
#308
b0001010 %
b01000 '
b1000010 *
0+
1,
#309
0,
#310
b0001001 %
b00111 '
b0000101 *
1+
1,
#311
0,
#312
b0001000 %
b00110 '
b0001011 *
1,
#313
0,
#314
b0000111 %
b00101 '
b0010111 *
1,
#315
0,
#316
b0000110 %
b00100 '
b0101110 *
0+
1,
#317
0,
#318
b0000101 %
b00011 '
b1011100 *
1,
#319
0,
#320
b0000100 %
b00010 '
b0111000 *
1,
#321
0,
#322
b0000011 %
b00001 '
b1110001 *
1+
1,
#323
0,
#324
b0000010 %
b00000 '
b1100011 *
1,
#325
0,
#326
1#
b0000001 %
b10011 '
b1000110 *
0+
1,
12
#327
0,
#328
0#
b0000000 %
b10010 '
b0001101 *
1+
1,
b00001111 0
02
b00000000000000000000000000000100 3
b00000000000000000000000000000101 4
#329
0,
#330
b0001100 %
b10001 '
b0011011 *
1,
#331
0,
#332
b0001011 %
b10000 '
b0110110 *
0+
1,
#333
0,
#334
b0001010 %
b01111 '
b1101101 *
1+
1,
#335
0,
#336
b0001001 %
b01110 '
b1011010 *
0+
1,
#337
0,
#338
b0001000 %
b01101 '
b0110100 *
1,
#339
0,
#340
b0000111 %
b01100 '
b1101001 *
1+
1,
#341
0,
#342
b0000110 %
b01011 '
b1010010 *
0+
1,
#343
0,
#344
b0000101 %
b01010 '
b0100100 *
1,
#345
0,
#346
b0000100 %
b01001 '
b1001000 *
1,
#347
0,
#348
b0000011 %
b01000 '
b0010001 *
1+
1,
#349
0,
#350
b0000010 %
b00111 '
b0100010 *
0+
1,
#351
0,
#352
b0000001 %
b00110 '
b1000100 *
1,
#353
0,
#354
b0000000 %
b00101 '
b0001001 *
1+
1,
#355
0,
#356
b0001000 %
b00100 '
b0010011 *
1,
#357
0,
#358
b0000111 %
b00011 '
b0100110 *
0+
1,
#359
0,
#360
b0000110 %
b00010 '
b1001100 *
1,
#361
0,
#362
b0000101 %
b00001 '
b0011001 *
1+
1,
#363
0,
#364
b0000100 %
b00000 '
b0110010 *
0+
1,
#365
0,
#366
1#
b0000011 %
b10011 '
b1100101 *
1+
1,
12
#367
0,
#368
0#
b0000010 %
b10010 '
b1001010 *
0+
1,
b00011111 0
02
b00000000000000000000000000000101 3
b00000000000000000000000000000110 4
#369
0,
#370
b0000001 %
b10001 '
b0010101 *
1+
1,
#371
0,
#372
b0000000 %
b10000 '
b0101010 *
0+
1,
#373
0,
#374
b0101001 %
b01111 '
b1010100 *
1,
#375
0,
#376
b0101000 %
b01110 '
b0101000 *
1,
#377
0,
#378
b0100111 %
b01101 '
b1010000 *
1,
#379
0,
#380
b0100110 %
b01100 '
b0100000 *
1,
#381
0,
#382
b0100101 %
b01011 '
b1000000 *
1,
#383
0,
#384
b0100100 %
b01010 '
b0000001 *
1+
1,
#385
0,
#386
b0100011 %
b01001 '
b0000011 *
1,
#387
0,
#388
b0100010 %
b01000 '
b0000111 *
1,
#389
0,
#390
b0100001 %
b00111 '
b0001111 *
1,
#391
0,
#392
b0100000 %
b00110 '
b0011111 *
1,
#393
0,
#394
b0011111 %
b00101 '
b0111110 *
0+
1,
#395
0,
#396
b0011110 %
b00100 '
b1111101 *
1+
1,
#397
0,
#398
b0011101 %
b00011 '
b1111011 *
1,
#399
0,
#400
b0011100 %
b00010 '
b1110111 *
1,
#401
0,
#402
b0011011 %
b00001 '
b1101111 *
1,
#403
0,
#404
b0011010 %
b00000 '
b1011110 *
0+
1,
#405
0,
#406
1#
b0011001 %
b10011 '
b0111100 *
1,
12
#407
0,
#408
0#
b0011000 %
b10010 '
b1111001 *
1+
1,
b00111111 0
02
b00000000000000000000000000000110 3
b00000000000000000000000000000111 4
#409
0,
#410
b0010111 %
b10001 '
b1110011 *
1,
#411
0,
#412
b0010110 %
b10000 '
b1100111 *
1,
#413
0,
#414
b0010101 %
b01111 '
b1001110 *
0+
1,
#415
0,
#416
b0010100 %
b01110 '
b0011101 *
1+
1,
#417
0,
#418
b0010011 %
b01101 '
b0111010 *
0+
1,
#419
0,
#420
b0010010 %
b01100 '
b1110101 *
1+
1,
#421
0,
#422
b0010001 %
b01011 '
b1101011 *
1,
#423
0,
#424
b0010000 %
b01010 '
b1010110 *
0+
1,
#425
0,
#426
b0001111 %
b01001 '
b0101100 *
1,
#427
0,
#428
b0001110 %
b01000 '
b1011000 *
1,
#429
0,
#430
b0001101 %
b00111 '
b0110000 *
1,
#431
0,
#432
b0001100 %
b00110 '
b1100001 *
1+
1,
#433
0,
#434
b0001011 %
b00101 '
b1000010 *
0+
1,
#435
0,
#436
b0001010 %
b00100 '
b0000101 *
1+
1,
#437
0,
#438
b0001001 %
b00011 '
b0001011 *
1,
#439
0,
#440
b0001000 %
b00010 '
b0010111 *
1,
#441
0,
#442
b0000111 %
b00001 '
b0101110 *
0+
1,
#443
0,
#444
b0000110 %
b00000 '
b1011100 *
1,
#445
0,
#446
1#
b0000101 %
b10011 '
b0111000 *
1,
12
#447
0,
#448
0#
b0000100 %
b10010 '
b1110001 *
1+
1,
b01111111 0
02
b00000000000000000000000000000111 3
b00000000000000000000000000001000 4
#449
0,
#450
b0000011 %
b10001 '
b1100011 *
1,
#451
0,
#452
b0000010 %
b10000 '
b1000110 *
0+
1,
#453
0,
#454
b0000001 %
b01111 '
b0001101 *
1+
1,
#455
0,
#456
b0000000 %
b01110 '
b0011011 *
1,
#457
0,
#458
b0011010 %
b01101 '
b0110110 *
0+
1,
#459
0,
#460
b0011001 %
b01100 '
b1101101 *
1+
1,
#461
0,
#462
b0011000 %
b01011 '
b1011010 *
0+
1,
#463
0,
#464
b0010111 %
b01010 '
b0110100 *
1,
#465
0,
#466
b0010110 %
b01001 '
b1101001 *
1+
1,
#467
0,
#468
b0010101 %
b01000 '
b1010010 *
0+
1,
#469
0,
#470
b0010100 %
b00111 '
b0100100 *
1,
#471
0,
#472
b0010011 %
b00110 '
b1001000 *
1,
#473
0,
#474
b0010010 %
b00101 '
b0010001 *
1+
1,
#475
0,
#476
b0010001 %
b00100 '
b0100010 *
0+
1,
#477
0,
#478
b0010000 %
b00011 '
b1000100 *
1,
#479
0,
#480
b0001111 %
b00010 '
b0001001 *
1+
1,
#481
0,
#482
b0001110 %
b00001 '
b0010011 *
1,
#483
0,
#484
b0001101 %
b00000 '
b0100110 *
0+
1,
#485
0,
#486
1#
b0001100 %
b10011 '
b1001100 *
1,
12
#487
0,
#488
0#
b0001011 %
b10010 '
0(
1)
b0011001 *
1+
1,
b11111111 0
02
b00000000000000000000000000001000 3
b00000000000000000000000000000000 4
b00000000000000000000000000000001 5
#489
0,
#490
b0011000 %
b00000000000000000000000000000001 &
b0110010 *
0+
1,
#491
0,
#492
b0110001 %
b1100101 *
1+
1,
#493
0,
#494
b1100100 %
b1001010 *
0+
1,
#495
0,
#496
b1001001 %
b0010101 *
1+
1,
#497
0,
#498
b0010100 %
b0101010 *
0+
1,
#499
0,
#500
b0101001 %
b1010100 *
1,
#501
0,
#502
b1010011 %
b0101000 *
1,
#503
0,
#504
b0100111 %
b1010000 *
1,
#505
0,
#506
b1001111 %
b0100000 *
1,
#507
0,
#508
b0011111 %
b1000000 *
1,
#509
0,
#510
b0111111 %
b0000001 *
1+
1,
#511
0,
#512
b0000000 %
b0000011 *
1,
b00000000000000000000000000000010 5
#513
0,
#514
1$
b0000010 %
b00000000000000000000000000000010 &
b0000111 *
1,
11
12
b00000000000000000000000000000011 5
#515
0,
#516
0$
b0000110 %
b00000000000000000000000000000011 &
1(
0)
b0001111 *
1,
b00000000 0
01
02
b00000000000000000000000000000000 3
b00000000000000000000000000000000 5
#517
0,
#518
b0000101 %
b00000000000000000000000000000000 &
b10001 '
b0011111 *
1,
#519
0,
#520
b0000100 %
b10000 '
b0111110 *
0+
1,
#521
0,
#522
b0000011 %
b01111 '
b1111101 *
1+
1,
#523
0,
#524
b0000010 %
b01110 '
b1111011 *
1,
#525
0,
#526
b0000001 %
b01101 '
b1110111 *
1,
#527
0,
#528
b0000000 %
b01100 '
b1101111 *
1,
#529
0,
#530
b1101110 %
b01011 '
b1011110 *
0+
1,
#531
0,
#532
b1101101 %
b01010 '
b0111100 *
1,
#533
0,
#534
b1101100 %
b01001 '
b1111001 *
1+
1,
#535
0,
#536
b1101011 %
b01000 '
b1110011 *
1,
#537
0,
#538
b1101010 %
b00111 '
b1100111 *
1,
#539
0,
#540
b1101001 %
b00110 '
b1001110 *
0+
1,
#541
0,
#542
b1101000 %
b00101 '
b0011101 *
1+
1,
#543
0,
#544
b1100111 %
b00100 '
b0111010 *
0+
1,
#545
0,
#546
b1100110 %
b00011 '
b1110101 *
1+
1,
#547
0,
#548
b1100101 %
b00010 '
b1101011 *
1,
#549
0,
#550
b1100100 %
b00001 '
b1010110 *
0+
1,
#551
0,
#552
b1100011 %
b00000 '
b0101100 *
1,
#553
0,
#554
1#
b1100010 %
b10011 '
b1011000 *
1,
12
#555
0,
#556
0#
b1100001 %
b10010 '
b0110000 *
1,
02
#557
0,
#558
b1100000 %
b10001 '
b1100001 *
1+
1,
#559
0,
#560
b1011111 %
b10000 '
b1000010 *
0+
1,
#561
0,
#562
b1011110 %
b01111 '
b0000101 *
1+
1,
#563
0,
#564
b1011101 %
b01110 '
b0001011 *
1,
#565
0,
#566
b1011100 %
b01101 '
b0010111 *
1,
#567
0,
#568
b1011011 %
b01100 '
b0101110 *
0+
1,
#569
0,
#570
b1011010 %
b01011 '
b1011100 *
1,
#571
0,
#572
b1011001 %
b01010 '
b0111000 *
1,
#573
0,
#574
b1011000 %
b01001 '
b1110001 *
1+
1,
#575
0,
#576
b1010111 %
b01000 '
b1100011 *
1,
#577
0,
#578
b1010110 %
b00111 '
b1000110 *
0+
1,
#579
0,
#580
b1010101 %
b00110 '
b0001101 *
1+
1,
#581
0,
#582
b1010100 %
b00101 '
b0011011 *
1,
#583
0,
#584
b1010011 %
b00100 '
b0110110 *
0+
1,
#585
0,
#586
b1010010 %
b00011 '
b1101101 *
1+
1,
#587
0,
#588
b1010001 %
b00010 '
b1011010 *
0+
1,
#589
0,
#590
b1010000 %
b00001 '
b0110100 *
1,
#591
0,
#592
b1001111 %
b00000 '
b1101001 *
1+
1,
#593
0,
#594
1#
b1001110 %
b10011 '
b1010010 *
0+
1,
12
#595
0,
#596
0#
b1001101 %
b10010 '
b0100100 *
1,
02
#597
0,
#598
b1001100 %
b10001 '
b1001000 *
1,
#599
0,
#600
b1001011 %
b10000 '
b0010001 *
1+
1,
#601
0,
#602
b1001010 %
b01111 '
b0100010 *
0+
1,
#603
0,
#604
b1001001 %
b01110 '
b1000100 *
1,
#605
0,
#606
b1001000 %
b01101 '
b0001001 *
1+
1,
#607
0,
#608
b1000111 %
b01100 '
b0010011 *
1,
#609
0,
#610
b1000110 %
b01011 '
b0100110 *
0+
1,
#611
0,
#612
b1000101 %
b01010 '
b1001100 *
1,
#613
0,
#614
b1000100 %
b01001 '
b0011001 *
1+
1,
#615
0,
#616
b1000011 %
b01000 '
b0110010 *
0+
1,
#617
0,
#618
b1000010 %
b00111 '
b1100101 *
1+
1,
#619
0,
#620
b1000001 %
b00110 '
b1001010 *
0+
1,
#621
0,
#622
b1000000 %
b00101 '
b0010101 *
1+
1,
#623
0,
#624
b0111111 %
b00100 '
b0101010 *
0+
1,
#625
0,
#626
b0111110 %
b00011 '
b1010100 *
1,
#627
0,
#628
b0111101 %
b00010 '
b0101000 *
1,
#629
0,
#630
b0111100 %
b00001 '
b1010000 *
1,
#631
0,
#632
b0111011 %
b00000 '
b0100000 *
1,
#633
0,
#634
1#
b0111010 %
b10011 '
b1000000 *
1,
12
#635
0,
#636
0#
b0111001 %
b10010 '
b0000001 *
1+
1,
02
#637
0,
#638
b0111000 %
b10001 '
b0000011 *
1,
#639
0,
#640
b0110111 %
b10000 '
b0000111 *
1,
#641
0,
#642
b0110110 %
b01111 '
b0001111 *
1,
#643
0,
#644
b0110101 %
b01110 '
b0011111 *
1,
#645
0,
#646
b0110100 %
b01101 '
b0111110 *
0+
1,
#647
0,
#648
b0110011 %
b01100 '
b1111101 *
1+
1,
#649
0,
#650
b0110010 %
b01011 '
b1111011 *
1,
#651
0,
#652
b0110001 %
b01010 '
b1110111 *
1,
#653
0,
#654
b0110000 %
b01001 '
b1101111 *
1,
#655
0,
#656
b0101111 %
b01000 '
b1011110 *
0+
1,
#657
0,
#658
b0101110 %
b00111 '
b0111100 *
1,
#659
0,
#660
b0101101 %
b00110 '
b1111001 *
1+
1,
#661
0,
#662
b0101100 %
b00101 '
b1110011 *
1,
#663
0,
#664
b0101011 %
b00100 '
b1100111 *
1,
#665
0,
#666
b0101010 %
b00011 '
b1001110 *
0+
1,
#667
0,
#668
b0101001 %
b00010 '
b0011101 *
1+
1,
#669
0,
#670
b0101000 %
b00001 '
b0111010 *
0+
1,
#671
0,
#672
b0100111 %
b00000 '
b1110101 *
1+
1,
#673
0,
#674
1#
b0100110 %
b10011 '
b1101011 *
1,
12
#675
0,
#676
0#
b0100101 %
b10010 '
b1010110 *
0+
1,
02
#677
0,
#678
b0100100 %
b10001 '
b0101100 *
1,
#679
0,
#680
b0100011 %
b10000 '
b1011000 *
1,
#681
0,
#682
b0100010 %
b01111 '
b0110000 *
1,
#683
0,
#684
b0100001 %
b01110 '
b1100001 *
1+
1,
#685
0,
#686
b0100000 %
b01101 '
b1000010 *
0+
1,
#687
0,
#688
b0011111 %
b01100 '
b0000101 *
1+
1,
#689
0,
#690
b0011110 %
b01011 '
b0001011 *
1,
#691
0,
#692
b0011101 %
b01010 '
b0010111 *
1,
#693
0,
#694
b0011100 %
b01001 '
b0101110 *
0+
1,
#695
0,
#696
b0011011 %
b01000 '
b1011100 *
1,
#697
0,
#698
b0011010 %
b00111 '
b0111000 *
1,
#699
0,
#700
b0011001 %
b00110 '
b1110001 *
1+
1,
#701
0,
#702
b0011000 %
b00101 '
b1100011 *
1,
#703
0,
#704
b0010111 %
b00100 '
b1000110 *
0+
1,
#705
0,
#706
b0010110 %
b00011 '
b0001101 *
1+
1,
#707
0,
#708
b0010101 %
b00010 '
b0011011 *
1,
#709
0,
#710
b0010100 %
b00001 '
b0110110 *
0+
1,
#711
0,
#712
b0010011 %
b00000 '
b1101101 *
1+
1,
#713
0,
#714
1#
b0010010 %
b10011 '
b1011010 *
0+
1,
12
#715
0,
#716
0#
b0010001 %
b10010 '
b0110100 *
1,
02
#717
0,
#718
b0010000 %
b10001 '
b1101001 *
1+
1,
#719
0,
#720
b0001111 %
b10000 '
b1010010 *
0+
1,
#721
0,
#722
b0001110 %
b01111 '
b0100100 *
1,
#723
0,
#724
b0001101 %
b01110 '
b1001000 *
1,
#725
0,
#726
b0001100 %
b01101 '
b0010001 *
1+
1,
#727
0,
#728
b0001011 %
b01100 '
b0100010 *
0+
1,
#729
0,
#730
b0001010 %
b01011 '
b1000100 *
1,
#731
0,
#732
b0001001 %
b01010 '
b0001001 *
1+
1,
#733
0,
#734
b0001000 %
b01001 '
b0010011 *
1,
#735
0,
#736
b0000111 %
b01000 '
b0100110 *
0+
1,
#737
0,
#738
b0000110 %
b00111 '
b1001100 *
1,
#739
0,
#740
b0000101 %
b00110 '
b0011001 *
1+
1,
#741
0,
#742
b0000100 %
b00101 '
b0110010 *
0+
1,
#743
0,
#744
b0000011 %
b00100 '
b1100101 *
1+
1,
#745
0,
#746
b0000010 %
b00011 '
b1001010 *
0+
1,
#747
0,
#748
b0000001 %
b00010 '
b0010101 *
1+
1,
#749
0,
#750
b0000000 %
b00001 '
b0101010 *
0+
1,
#751
0,
#752
b0101001 %
b00000 '
b1010100 *
1,
#753
0,
#754
1#
b0101000 %
b10011 '
b0101000 *
1,
12
#755
0,
#756
0#
b0100111 %
b10010 '
b1010000 *
1,
02
#757
0,
#758
b0100110 %
b10001 '
b0100000 *
1,
#759
0,
#760
b0100101 %
b10000 '
b1000000 *
1,
#761
0,
#762
b0100100 %
b01111 '
b0000001 *
1+
1,
#763
0,
#764
b0100011 %
b01110 '
b0000011 *
1,
#765
0,
#766
b0100010 %
b01101 '
b0000111 *
1,
#767
0,
#768
b0100001 %
b01100 '
b0001111 *
1,
#769
0,
#770
b0100000 %
b01011 '
b0011111 *
1,
#771
0,
#772
b0011111 %
b01010 '
b0111110 *
0+
1,
#773
0,
#774
b0011110 %
b01001 '
b1111101 *
1+
1,
#775
0,
#776
b0011101 %
b01000 '
b1111011 *
1,
#777
0,
#778
b0011100 %
b00111 '
b1110111 *
1,
#779
0,
#780
b0011011 %
b00110 '
b1101111 *
1,
#781
0,
#782
b0011010 %
b00101 '
b1011110 *
0+
1,
#783
0,
